{"10160700":{"threads": 1,
"parallel_pattern":7,
"inference_mode":1,
"random_seed": 0,
"min_branching_factor":4,
"max_branching_factor":7,
"problem_size":1000,
"size":16,
"data": [2100, 0.430636]
},
"10160701":{"threads": 1,
"parallel_pattern":7,
"inference_mode":1,
"random_seed": 1,
"min_branching_factor":4,
"max_branching_factor":7,
"problem_size":1000,
"size":16,
"data": [1000, 0.204265]
},
"10160702":{"threads": 1,
"parallel_pattern":7,
"inference_mode":1,
"random_seed": 2,
"min_branching_factor":4,
"max_branching_factor":7,
"problem_size":1000,
"size":16,
"data": [2325, 0.475885]
},
"10160703":{"threads": 1,
"parallel_pattern":7,
"inference_mode":1,
"random_seed": 3,
"min_branching_factor":4,
"max_branching_factor":7,
"problem_size":1000,
"size":16,
"data": [2225, 0.453545]
},
"10160704":{"threads": 1,
"parallel_pattern":7,
"inference_mode":1,
"random_seed": 4,
"min_branching_factor":4,
"max_branching_factor":7,
"problem_size":1000,
"size":16,
"data": [725, 0.149336]
},
"10160705":{"threads": 1,
"parallel_pattern":7,
"inference_mode":1,
"random_seed": 5,
"min_branching_factor":4,
"max_branching_factor":7,
"problem_size":1000,
"size":16,
"data": [550, 0.112012]
},
"10160706":{"threads": 1,
"parallel_pattern":7,
"inference_mode":1,
"random_seed": 6,
"min_branching_factor":4,
"max_branching_factor":7,
"problem_size":1000,
"size":16,
"data": [1175, 0.241818]
},
"10160707":{"threads": 1,
"parallel_pattern":7,
"inference_mode":1,
"random_seed": 7,
"min_branching_factor":4,
"max_branching_factor":7,
"problem_size":1000,
"size":16,
"data": [675, 0.13769]
},
"10160708":{"threads": 1,
"parallel_pattern":7,
"inference_mode":1,
"random_seed": 8,
"min_branching_factor":4,
"max_branching_factor":7,
"problem_size":1000,
"size":16,
"data": [1750, 0.359894]
},
"10160709":{"threads": 1,
"parallel_pattern":7,
"inference_mode":1,
"random_seed": 9,
"min_branching_factor":4,
"max_branching_factor":7,
"problem_size":1000,
"size":16,
"data": [1975, 0.400623]
},
"10160710":{"threads": 1,
"parallel_pattern":7,
"inference_mode":1,
"random_seed": 10,
"min_branching_factor":4,
"max_branching_factor":7,
"problem_size":1000,
"size":16,
"data": [2150, 0.437405]
},
"10160711":{"threads": 1,
"parallel_pattern":7,
"inference_mode":1,
"random_seed": 11,
"min_branching_factor":4,
"max_branching_factor":7,
"problem_size":1000,
"size":16,
"data": [1875, 0.382803]
},
"10160712":{"threads": 1,
"parallel_pattern":7,
"inference_mode":1,
"random_seed": 12,
"min_branching_factor":4,
"max_branching_factor":7,
"problem_size":1000,
"size":16,
"data": [175, 0.0363744]
},
"10160713":{"threads": 1,
"parallel_pattern":7,
"inference_mode":1,
"random_seed": 13,
"min_branching_factor":4,
"max_branching_factor":7,
"problem_size":1000,
"size":16,
"data": [600, 0.123269]
},
"10160714":{"threads": 1,
"parallel_pattern":7,
"inference_mode":1,
"random_seed": 14,
"min_branching_factor":4,
"max_branching_factor":7,
"problem_size":1000,
"size":16,
"data": [175, 0.036552]
},
"10160715":{"threads": 1,
"parallel_pattern":7,
"inference_mode":1,
"random_seed": 15,
"min_branching_factor":4,
"max_branching_factor":7,
"problem_size":1000,
"size":16,
"data": [1425, 0.293305]
},
"10160716":{"threads": 1,
"parallel_pattern":7,
"inference_mode":1,
"random_seed": 16,
"min_branching_factor":4,
"max_branching_factor":7,
"problem_size":1000,
"size":16,
"data": [1500, 0.306326]
},
"10160717":{"threads": 1,
"parallel_pattern":7,
"inference_mode":1,
"random_seed": 17,
"min_branching_factor":4,
"max_branching_factor":7,
"problem_size":1000,
"size":16,
"data": [1750, 0.357094]
},
"10160718":{"threads": 1,
"parallel_pattern":7,
"inference_mode":1,
"random_seed": 18,
"min_branching_factor":4,
"max_branching_factor":7,
"problem_size":1000,
"size":16,
"data": [1725, 0.354688]
},
"10160719":{"threads": 1,
"parallel_pattern":7,
"inference_mode":1,
"random_seed": 19,
"min_branching_factor":4,
"max_branching_factor":7,
"problem_size":1000,
"size":16,
"data": [2025, 0.411319]
},
"10160720":{"threads": 1,
"parallel_pattern":7,
"inference_mode":1,
"random_seed": 20,
"min_branching_factor":4,
"max_branching_factor":7,
"problem_size":1000,
"size":16,
"data": [1600, 0.328413]
},
"10160721":{"threads": 1,
"parallel_pattern":7,
"inference_mode":1,
"random_seed": 21,
"min_branching_factor":4,
"max_branching_factor":7,
"problem_size":1000,
"size":16,
"data": [1700, 0.347103]
},
"10160722":{"threads": 1,
"parallel_pattern":7,
"inference_mode":1,
"random_seed": 22,
"min_branching_factor":4,
"max_branching_factor":7,
"problem_size":1000,
"size":16,
"data": [275, 0.0567385]
},
"10160723":{"threads": 1,
"parallel_pattern":7,
"inference_mode":1,
"random_seed": 23,
"min_branching_factor":4,
"max_branching_factor":7,
"problem_size":1000,
"size":16,
"data": [775, 0.1596]
},
"10160724":{"threads": 1,
"parallel_pattern":7,
"inference_mode":1,
"random_seed": 24,
"min_branching_factor":4,
"max_branching_factor":7,
"problem_size":1000,
"size":16,
"data": [1225, 0.251786]
},
"10160725":{"threads": 1,
"parallel_pattern":7,
"inference_mode":1,
"random_seed": 25,
"min_branching_factor":4,
"max_branching_factor":7,
"problem_size":1000,
"size":16,
"data": [2175, 0.447934]
},
"10160726":{"threads": 1,
"parallel_pattern":7,
"inference_mode":1,
"random_seed": 26,
"min_branching_factor":4,
"max_branching_factor":7,
"problem_size":1000,
"size":16,
"data": [1425, 0.291416]
},
"10160727":{"threads": 1,
"parallel_pattern":7,
"inference_mode":1,
"random_seed": 27,
"min_branching_factor":4,
"max_branching_factor":7,
"problem_size":1000,
"size":16,
"data": [2250, 0.458972]
},
"10160728":{"threads": 1,
"parallel_pattern":7,
"inference_mode":1,
"random_seed": 28,
"min_branching_factor":4,
"max_branching_factor":7,
"problem_size":1000,
"size":16,
"data": [400, 0.0850565]
},
"10160729":{"threads": 1,
"parallel_pattern":7,
"inference_mode":1,
"random_seed": 29,
"min_branching_factor":4,
"max_branching_factor":7,
"problem_size":1000,
"size":16,
"data": [425, 0.0875319]
},
"10160730":{"threads": 1,
"parallel_pattern":7,
"inference_mode":1,
"random_seed": 30,
"min_branching_factor":4,
"max_branching_factor":7,
"problem_size":1000,
"size":16,
"data": [1050, 0.214357]
},
"10160731":{"threads": 1,
"parallel_pattern":7,
"inference_mode":1,
"random_seed": 31,
"min_branching_factor":4,
"max_branching_factor":7,
"problem_size":1000,
"size":16,
"data": [2325, 0.471896]
},
"10160732":{"threads": 1,
"parallel_pattern":7,
"inference_mode":1,
"random_seed": 32,
"min_branching_factor":4,
"max_branching_factor":7,
"problem_size":1000,
"size":16,
"data": [1550, 0.319699]
},
"10160733":{"threads": 1,
"parallel_pattern":7,
"inference_mode":1,
"random_seed": 33,
"min_branching_factor":4,
"max_branching_factor":7,
"problem_size":1000,
"size":16,
"data": [1350, 0.274495]
},
"10160734":{"threads": 1,
"parallel_pattern":7,
"inference_mode":1,
"random_seed": 34,
"min_branching_factor":4,
"max_branching_factor":7,
"problem_size":1000,
"size":16,
"data": [975, 0.198222]
},
"10160735":{"threads": 1,
"parallel_pattern":7,
"inference_mode":1,
"random_seed": 35,
"min_branching_factor":4,
"max_branching_factor":7,
"problem_size":1000,
"size":16,
"data": [2850, 0.580683]
},
"10160736":{"threads": 1,
"parallel_pattern":7,
"inference_mode":1,
"random_seed": 36,
"min_branching_factor":4,
"max_branching_factor":7,
"problem_size":1000,
"size":16,
"data": [750, 0.153981]
},
"10160737":{"threads": 1,
"parallel_pattern":7,
"inference_mode":1,
"random_seed": 37,
"min_branching_factor":4,
"max_branching_factor":7,
"problem_size":1000,
"size":16,
"data": [275, 0.0567652]
},
"10160738":{"threads": 1,
"parallel_pattern":7,
"inference_mode":1,
"random_seed": 38,
"min_branching_factor":4,
"max_branching_factor":7,
"problem_size":1000,
"size":16,
"data": [925, 0.192015]
},
"10160739":{"threads": 1,
"parallel_pattern":7,
"inference_mode":1,
"random_seed": 39,
"min_branching_factor":4,
"max_branching_factor":7,
"problem_size":1000,
"size":16,
"data": [900, 0.184417]
},
"10160740":{"threads": 1,
"parallel_pattern":7,
"inference_mode":1,
"random_seed": 40,
"min_branching_factor":4,
"max_branching_factor":7,
"problem_size":1000,
"size":16,
"data": [325, 0.0667463]
},
"10160741":{"threads": 1,
"parallel_pattern":7,
"inference_mode":1,
"random_seed": 41,
"min_branching_factor":4,
"max_branching_factor":7,
"problem_size":1000,
"size":16,
"data": [1250, 0.255204]
},
"10160742":{"threads": 1,
"parallel_pattern":7,
"inference_mode":1,
"random_seed": 42,
"min_branching_factor":4,
"max_branching_factor":7,
"problem_size":1000,
"size":16,
"data": [200, 0.0416575]
},
"10160743":{"threads": 1,
"parallel_pattern":7,
"inference_mode":1,
"random_seed": 43,
"min_branching_factor":4,
"max_branching_factor":7,
"problem_size":1000,
"size":16,
"data": [750, 0.153047]
},
"10160744":{"threads": 1,
"parallel_pattern":7,
"inference_mode":1,
"random_seed": 44,
"min_branching_factor":4,
"max_branching_factor":7,
"problem_size":1000,
"size":16,
"data": [525, 0.108059]
},
"10160745":{"threads": 1,
"parallel_pattern":7,
"inference_mode":1,
"random_seed": 45,
"min_branching_factor":4,
"max_branching_factor":7,
"problem_size":1000,
"size":16,
"data": [400, 0.0845507]
},
"10160746":{"threads": 1,
"parallel_pattern":7,
"inference_mode":1,
"random_seed": 46,
"min_branching_factor":4,
"max_branching_factor":7,
"problem_size":1000,
"size":16,
"data": [2100, 0.427828]
},
"10160747":{"threads": 1,
"parallel_pattern":7,
"inference_mode":1,
"random_seed": 47,
"min_branching_factor":4,
"max_branching_factor":7,
"problem_size":1000,
"size":16,
"data": [1125, 0.230209]
},
"10160748":{"threads": 1,
"parallel_pattern":7,
"inference_mode":1,
"random_seed": 48,
"min_branching_factor":4,
"max_branching_factor":7,
"problem_size":1000,
"size":16,
"data": [300, 0.0619213]
},
"10160749":{"threads": 1,
"parallel_pattern":7,
"inference_mode":1,
"random_seed": 49,
"min_branching_factor":4,
"max_branching_factor":7,
"problem_size":1000,
"size":16,
"data": [1925, 0.392945]
},
"10160750":{"threads": 1,
"parallel_pattern":7,
"inference_mode":1,
"random_seed": 50,
"min_branching_factor":4,
"max_branching_factor":7,
"problem_size":1000,
"size":16,
"data": [2075, 0.426462]
},
"10160751":{"threads": 1,
"parallel_pattern":7,
"inference_mode":1,
"random_seed": 51,
"min_branching_factor":4,
"max_branching_factor":7,
"problem_size":1000,
"size":16,
"data": [1725, 0.350773]
},
"10160752":{"threads": 1,
"parallel_pattern":7,
"inference_mode":1,
"random_seed": 52,
"min_branching_factor":4,
"max_branching_factor":7,
"problem_size":1000,
"size":16,
"data": [1575, 0.323096]
},
"10160753":{"threads": 1,
"parallel_pattern":7,
"inference_mode":1,
"random_seed": 53,
"min_branching_factor":4,
"max_branching_factor":7,
"problem_size":1000,
"size":16,
"data": [1650, 0.338329]
},
"10160754":{"threads": 1,
"parallel_pattern":7,
"inference_mode":1,
"random_seed": 54,
"min_branching_factor":4,
"max_branching_factor":7,
"problem_size":1000,
"size":16,
"data": [1575, 0.320593]
},
"10160755":{"threads": 1,
"parallel_pattern":7,
"inference_mode":1,
"random_seed": 55,
"min_branching_factor":4,
"max_branching_factor":7,
"problem_size":1000,
"size":16,
"data": [925, 0.188971]
},
"10160756":{"threads": 1,
"parallel_pattern":7,
"inference_mode":1,
"random_seed": 56,
"min_branching_factor":4,
"max_branching_factor":7,
"problem_size":1000,
"size":16,
"data": [1900, 0.388088]
},
"10160757":{"threads": 1,
"parallel_pattern":7,
"inference_mode":1,
"random_seed": 57,
"min_branching_factor":4,
"max_branching_factor":7,
"problem_size":1000,
"size":16,
"data": [775, 0.158274]
},
"10160758":{"threads": 1,
"parallel_pattern":7,
"inference_mode":1,
"random_seed": 58,
"min_branching_factor":4,
"max_branching_factor":7,
"problem_size":1000,
"size":16,
"data": [425, 0.0880098]
},
"10160759":{"threads": 1,
"parallel_pattern":7,
"inference_mode":1,
"random_seed": 59,
"min_branching_factor":4,
"max_branching_factor":7,
"problem_size":1000,
"size":16,
"data": [1700, 0.348035]
},
"10160760":{"threads": 1,
"parallel_pattern":7,
"inference_mode":1,
"random_seed": 60,
"min_branching_factor":4,
"max_branching_factor":7,
"problem_size":1000,
"size":16,
"data": [1925, 0.401753]
},
"10160761":{"threads": 1,
"parallel_pattern":7,
"inference_mode":1,
"random_seed": 61,
"min_branching_factor":4,
"max_branching_factor":7,
"problem_size":1000,
"size":16,
"data": [2125, 0.434821]
},
"10160762":{"threads": 1,
"parallel_pattern":7,
"inference_mode":1,
"random_seed": 62,
"min_branching_factor":4,
"max_branching_factor":7,
"problem_size":1000,
"size":16,
"data": [2925, 0.595557]
},
"10160763":{"threads": 1,
"parallel_pattern":7,
"inference_mode":1,
"random_seed": 63,
"min_branching_factor":4,
"max_branching_factor":7,
"problem_size":1000,
"size":16,
"data": [325, 0.0694419]
},
"10160764":{"threads": 1,
"parallel_pattern":7,
"inference_mode":1,
"random_seed": 64,
"min_branching_factor":4,
"max_branching_factor":7,
"problem_size":1000,
"size":16,
"data": [3250, 0.663172]
},
"10160765":{"threads": 1,
"parallel_pattern":7,
"inference_mode":1,
"random_seed": 65,
"min_branching_factor":4,
"max_branching_factor":7,
"problem_size":1000,
"size":16,
"data": [2100, 0.431354]
},
"10160766":{"threads": 1,
"parallel_pattern":7,
"inference_mode":1,
"random_seed": 66,
"min_branching_factor":4,
"max_branching_factor":7,
"problem_size":1000,
"size":16,
"data": [2900, 0.590873]
},
"10160767":{"threads": 1,
"parallel_pattern":7,
"inference_mode":1,
"random_seed": 67,
"min_branching_factor":4,
"max_branching_factor":7,
"problem_size":1000,
"size":16,
"data": [2075, 0.424942]
},
"10160768":{"threads": 1,
"parallel_pattern":7,
"inference_mode":1,
"random_seed": 68,
"min_branching_factor":4,
"max_branching_factor":7,
"problem_size":1000,
"size":16,
"data": [300, 0.0625718]
},
"10160769":{"threads": 1,
"parallel_pattern":7,
"inference_mode":1,
"random_seed": 69,
"min_branching_factor":4,
"max_branching_factor":7,
"problem_size":1000,
"size":16,
"data": [1725, 0.350237]
},
"10160770":{"threads": 1,
"parallel_pattern":7,
"inference_mode":1,
"random_seed": 70,
"min_branching_factor":4,
"max_branching_factor":7,
"problem_size":1000,
"size":16,
"data": [375, 0.0772987]
},
"10160771":{"threads": 1,
"parallel_pattern":7,
"inference_mode":1,
"random_seed": 71,
"min_branching_factor":4,
"max_branching_factor":7,
"problem_size":1000,
"size":16,
"data": [925, 0.18839]
},
"10160772":{"threads": 1,
"parallel_pattern":7,
"inference_mode":1,
"random_seed": 72,
"min_branching_factor":4,
"max_branching_factor":7,
"problem_size":1000,
"size":16,
"data": [100, 0.021443]
},
"10160773":{"threads": 1,
"parallel_pattern":7,
"inference_mode":1,
"random_seed": 73,
"min_branching_factor":4,
"max_branching_factor":7,
"problem_size":1000,
"size":16,
"data": [2200, 0.451139]
},
"10160774":{"threads": 1,
"parallel_pattern":7,
"inference_mode":1,
"random_seed": 74,
"min_branching_factor":4,
"max_branching_factor":7,
"problem_size":1000,
"size":16,
"data": [200, 0.0421393]
},
"10160775":{"threads": 1,
"parallel_pattern":7,
"inference_mode":1,
"random_seed": 75,
"min_branching_factor":4,
"max_branching_factor":7,
"problem_size":1000,
"size":16,
"data": [1825, 0.374667]
},
"10160776":{"threads": 1,
"parallel_pattern":7,
"inference_mode":1,
"random_seed": 76,
"min_branching_factor":4,
"max_branching_factor":7,
"problem_size":1000,
"size":16,
"data": [425, 0.0873953]
},
"10160777":{"threads": 1,
"parallel_pattern":7,
"inference_mode":1,
"random_seed": 77,
"min_branching_factor":4,
"max_branching_factor":7,
"problem_size":1000,
"size":16,
"data": [25, 0.00574433]
},
"10160778":{"threads": 1,
"parallel_pattern":7,
"inference_mode":1,
"random_seed": 78,
"min_branching_factor":4,
"max_branching_factor":7,
"problem_size":1000,
"size":16,
"data": [325, 0.0669106]
},
"10160779":{"threads": 1,
"parallel_pattern":7,
"inference_mode":1,
"random_seed": 79,
"min_branching_factor":4,
"max_branching_factor":7,
"problem_size":1000,
"size":16,
"data": [1750, 0.358252]
},
"10160780":{"threads": 1,
"parallel_pattern":7,
"inference_mode":1,
"random_seed": 80,
"min_branching_factor":4,
"max_branching_factor":7,
"problem_size":1000,
"size":16,
"data": [1200, 0.246297]
},
"10160781":{"threads": 1,
"parallel_pattern":7,
"inference_mode":1,
"random_seed": 81,
"min_branching_factor":4,
"max_branching_factor":7,
"problem_size":1000,
"size":16,
"data": [1400, 0.285343]
},
"10160782":{"threads": 1,
"parallel_pattern":7,
"inference_mode":1,
"random_seed": 82,
"min_branching_factor":4,
"max_branching_factor":7,
"problem_size":1000,
"size":16,
"data": [825, 0.169052]
},
"10160783":{"threads": 1,
"parallel_pattern":7,
"inference_mode":1,
"random_seed": 83,
"min_branching_factor":4,
"max_branching_factor":7,
"problem_size":1000,
"size":16,
"data": [2475, 0.506516]
},
"10160784":{"threads": 1,
"parallel_pattern":7,
"inference_mode":1,
"random_seed": 84,
"min_branching_factor":4,
"max_branching_factor":7,
"problem_size":1000,
"size":16,
"data": [400, 0.0815672]
},
"10160785":{"threads": 1,
"parallel_pattern":7,
"inference_mode":1,
"random_seed": 85,
"min_branching_factor":4,
"max_branching_factor":7,
"problem_size":1000,
"size":16,
"data": [1200, 0.245755]
},
"10160786":{"threads": 1,
"parallel_pattern":7,
"inference_mode":1,
"random_seed": 86,
"min_branching_factor":4,
"max_branching_factor":7,
"problem_size":1000,
"size":16,
"data": [425, 0.0870405]
},
"10160787":{"threads": 1,
"parallel_pattern":7,
"inference_mode":1,
"random_seed": 87,
"min_branching_factor":4,
"max_branching_factor":7,
"problem_size":1000,
"size":16,
"data": [1925, 0.398816]
},
"10160788":{"threads": 1,
"parallel_pattern":7,
"inference_mode":1,
"random_seed": 88,
"min_branching_factor":4,
"max_branching_factor":7,
"problem_size":1000,
"size":16,
"data": [2850, 0.580451]
},
"10160789":{"threads": 1,
"parallel_pattern":7,
"inference_mode":1,
"random_seed": 89,
"min_branching_factor":4,
"max_branching_factor":7,
"problem_size":1000,
"size":16,
"data": [1175, 0.240379]
},
"10160790":{"threads": 1,
"parallel_pattern":7,
"inference_mode":1,
"random_seed": 90,
"min_branching_factor":4,
"max_branching_factor":7,
"problem_size":1000,
"size":16,
"data": [425, 0.0868712]
},
"10160791":{"threads": 1,
"parallel_pattern":7,
"inference_mode":1,
"random_seed": 91,
"min_branching_factor":4,
"max_branching_factor":7,
"problem_size":1000,
"size":16,
"data": [75, 0.0161504]
},
"10160792":{"threads": 1,
"parallel_pattern":7,
"inference_mode":1,
"random_seed": 92,
"min_branching_factor":4,
"max_branching_factor":7,
"problem_size":1000,
"size":16,
"data": [3750, 0.775506]
},
"10160793":{"threads": 1,
"parallel_pattern":7,
"inference_mode":1,
"random_seed": 93,
"min_branching_factor":4,
"max_branching_factor":7,
"problem_size":1000,
"size":16,
"data": [900, 0.189178]
},
"10160794":{"threads": 1,
"parallel_pattern":7,
"inference_mode":1,
"random_seed": 94,
"min_branching_factor":4,
"max_branching_factor":7,
"problem_size":1000,
"size":16,
"data": [1600, 0.32715]
},
"10160795":{"threads": 1,
"parallel_pattern":7,
"inference_mode":1,
"random_seed": 95,
"min_branching_factor":4,
"max_branching_factor":7,
"problem_size":1000,
"size":16,
"data": [2575, 0.524822]
},
"10160796":{"threads": 1,
"parallel_pattern":7,
"inference_mode":1,
"random_seed": 96,
"min_branching_factor":4,
"max_branching_factor":7,
"problem_size":1000,
"size":16,
"data": [1925, 0.392194]
},
"10160797":{"threads": 1,
"parallel_pattern":7,
"inference_mode":1,
"random_seed": 97,
"min_branching_factor":4,
"max_branching_factor":7,
"problem_size":1000,
"size":16,
"data": [475, 0.0971036]
},
"10160798":{"threads": 1,
"parallel_pattern":7,
"inference_mode":1,
"random_seed": 98,
"min_branching_factor":4,
"max_branching_factor":7,
"problem_size":1000,
"size":16,
"data": [500, 0.102464]
},
"10160799":{"threads": 1,
"parallel_pattern":7,
"inference_mode":1,
"random_seed": 99,
"min_branching_factor":4,
"max_branching_factor":7,
"problem_size":1000,
"size":16,
"data": [500, 0.102503]
},
"10160800":{"threads": 1,
"parallel_pattern":7,
"inference_mode":1,
"random_seed": 100,
"min_branching_factor":4,
"max_branching_factor":7,
"problem_size":1000,
"size":16,
"data": [25, 0.00588335]
}}
