{"10320700":{"threads": 1,
"parallel_pattern":7,
"inference_mode":1,
"random_seed": 0,
"min_branching_factor":4,
"max_branching_factor":7,
"problem_size":1000,
"size":32,
"data": [4000, 0.678651]
},
"10320701":{"threads": 1,
"parallel_pattern":7,
"inference_mode":1,
"random_seed": 1,
"min_branching_factor":4,
"max_branching_factor":7,
"problem_size":1000,
"size":32,
"data": [3200, 0.545535]
},
"10320702":{"threads": 1,
"parallel_pattern":7,
"inference_mode":1,
"random_seed": 2,
"min_branching_factor":4,
"max_branching_factor":7,
"problem_size":1000,
"size":32,
"data": [200, 0.0367373]
},
"10320703":{"threads": 1,
"parallel_pattern":7,
"inference_mode":1,
"random_seed": 3,
"min_branching_factor":4,
"max_branching_factor":7,
"problem_size":1000,
"size":32,
"data": [5700, 0.966197]
},
"10320704":{"threads": 1,
"parallel_pattern":7,
"inference_mode":1,
"random_seed": 4,
"min_branching_factor":4,
"max_branching_factor":7,
"problem_size":1000,
"size":32,
"data": [2700, 0.461524]
},
"10320705":{"threads": 1,
"parallel_pattern":7,
"inference_mode":1,
"random_seed": 5,
"min_branching_factor":4,
"max_branching_factor":7,
"problem_size":1000,
"size":32,
"data": [2600, 0.436053]
},
"10320706":{"threads": 1,
"parallel_pattern":7,
"inference_mode":1,
"random_seed": 6,
"min_branching_factor":4,
"max_branching_factor":7,
"problem_size":1000,
"size":32,
"data": [3600, 0.610839]
},
"10320707":{"threads": 1,
"parallel_pattern":7,
"inference_mode":1,
"random_seed": 7,
"min_branching_factor":4,
"max_branching_factor":7,
"problem_size":1000,
"size":32,
"data": [3100, 0.540635]
},
"10320708":{"threads": 1,
"parallel_pattern":7,
"inference_mode":1,
"random_seed": 8,
"min_branching_factor":4,
"max_branching_factor":7,
"problem_size":1000,
"size":32,
"data": [3200, 0.559147]
},
"10320709":{"threads": 1,
"parallel_pattern":7,
"inference_mode":1,
"random_seed": 9,
"min_branching_factor":4,
"max_branching_factor":7,
"problem_size":1000,
"size":32,
"data": [4600, 0.782951]
},
"10320710":{"threads": 1,
"parallel_pattern":7,
"inference_mode":1,
"random_seed": 10,
"min_branching_factor":4,
"max_branching_factor":7,
"problem_size":1000,
"size":32,
"data": [3600, 0.60942]
},
"10320711":{"threads": 1,
"parallel_pattern":7,
"inference_mode":1,
"random_seed": 11,
"min_branching_factor":4,
"max_branching_factor":7,
"problem_size":1000,
"size":32,
"data": {
}},
"10320712":{"threads": 1,
"parallel_pattern":7,
"inference_mode":1,
"random_seed": 12,
"min_branching_factor":4,
"max_branching_factor":7,
"problem_size":1000,
"size":32,
"data": [1200, 0.203349]
},
"10320713":{"threads": 1,
"parallel_pattern":7,
"inference_mode":1,
"random_seed": 13,
"min_branching_factor":4,
"max_branching_factor":7,
"problem_size":1000,
"size":32,
"data": [4200, 0.713441]
},
"10320714":{"threads": 1,
"parallel_pattern":7,
"inference_mode":1,
"random_seed": 14,
"min_branching_factor":4,
"max_branching_factor":7,
"problem_size":1000,
"size":32,
"data": [1200, 0.211984]
},
"10320715":{"threads": 1,
"parallel_pattern":7,
"inference_mode":1,
"random_seed": 15,
"min_branching_factor":4,
"max_branching_factor":7,
"problem_size":1000,
"size":32,
"data": [3400, 0.575189]
},
"10320716":{"threads": 1,
"parallel_pattern":7,
"inference_mode":1,
"random_seed": 16,
"min_branching_factor":4,
"max_branching_factor":7,
"problem_size":1000,
"size":32,
"data": [700, 0.121488]
},
"10320717":{"threads": 1,
"parallel_pattern":7,
"inference_mode":1,
"random_seed": 17,
"min_branching_factor":4,
"max_branching_factor":7,
"problem_size":1000,
"size":32,
"data": [5800, 0.979492]
},
"10320718":{"threads": 1,
"parallel_pattern":7,
"inference_mode":1,
"random_seed": 18,
"min_branching_factor":4,
"max_branching_factor":7,
"problem_size":1000,
"size":32,
"data": [3800, 0.662496]
},
"10320719":{"threads": 1,
"parallel_pattern":7,
"inference_mode":1,
"random_seed": 19,
"min_branching_factor":4,
"max_branching_factor":7,
"problem_size":1000,
"size":32,
"data": [1900, 0.327337]
},
"10320720":{"threads": 1,
"parallel_pattern":7,
"inference_mode":1,
"random_seed": 20,
"min_branching_factor":4,
"max_branching_factor":7,
"problem_size":1000,
"size":32,
"data": [200, 0.0346551]
},
"10320721":{"threads": 1,
"parallel_pattern":7,
"inference_mode":1,
"random_seed": 21,
"min_branching_factor":4,
"max_branching_factor":7,
"problem_size":1000,
"size":32,
"data": {
}},
"10320722":{"threads": 1,
"parallel_pattern":7,
"inference_mode":1,
"random_seed": 22,
"min_branching_factor":4,
"max_branching_factor":7,
"problem_size":1000,
"size":32,
"data": [900, 0.154511]
},
"10320723":{"threads": 1,
"parallel_pattern":7,
"inference_mode":1,
"random_seed": 23,
"min_branching_factor":4,
"max_branching_factor":7,
"problem_size":1000,
"size":32,
"data": [600, 0.103715]
},
"10320724":{"threads": 1,
"parallel_pattern":7,
"inference_mode":1,
"random_seed": 24,
"min_branching_factor":4,
"max_branching_factor":7,
"problem_size":1000,
"size":32,
"data": [2600, 0.44137]
},
"10320725":{"threads": 1,
"parallel_pattern":7,
"inference_mode":1,
"random_seed": 25,
"min_branching_factor":4,
"max_branching_factor":7,
"problem_size":1000,
"size":32,
"data": [4200, 0.709726]
},
"10320726":{"threads": 1,
"parallel_pattern":7,
"inference_mode":1,
"random_seed": 26,
"min_branching_factor":4,
"max_branching_factor":7,
"problem_size":1000,
"size":32,
"data": [1000, 0.170946]
},
"10320727":{"threads": 1,
"parallel_pattern":7,
"inference_mode":1,
"random_seed": 27,
"min_branching_factor":4,
"max_branching_factor":7,
"problem_size":1000,
"size":32,
"data": [3300, 0.558249]
},
"10320728":{"threads": 1,
"parallel_pattern":7,
"inference_mode":1,
"random_seed": 28,
"min_branching_factor":4,
"max_branching_factor":7,
"problem_size":1000,
"size":32,
"data": [5500, 0.965911]
},
"10320729":{"threads": 1,
"parallel_pattern":7,
"inference_mode":1,
"random_seed": 29,
"min_branching_factor":4,
"max_branching_factor":7,
"problem_size":1000,
"size":32,
"data": [2800, 0.474679]
},
"10320730":{"threads": 1,
"parallel_pattern":7,
"inference_mode":1,
"random_seed": 30,
"min_branching_factor":4,
"max_branching_factor":7,
"problem_size":1000,
"size":32,
"data": [3200, 0.563151]
},
"10320731":{"threads": 1,
"parallel_pattern":7,
"inference_mode":1,
"random_seed": 31,
"min_branching_factor":4,
"max_branching_factor":7,
"problem_size":1000,
"size":32,
"data": [2800, 0.472945]
},
"10320732":{"threads": 1,
"parallel_pattern":7,
"inference_mode":1,
"random_seed": 32,
"min_branching_factor":4,
"max_branching_factor":7,
"problem_size":1000,
"size":32,
"data": [3000, 0.510843]
},
"10320733":{"threads": 1,
"parallel_pattern":7,
"inference_mode":1,
"random_seed": 33,
"min_branching_factor":4,
"max_branching_factor":7,
"problem_size":1000,
"size":32,
"data": [6000, 1.03796]
},
"10320734":{"threads": 1,
"parallel_pattern":7,
"inference_mode":1,
"random_seed": 34,
"min_branching_factor":4,
"max_branching_factor":7,
"problem_size":1000,
"size":32,
"data": [6200, 1.04676]
},
"10320735":{"threads": 1,
"parallel_pattern":7,
"inference_mode":1,
"random_seed": 35,
"min_branching_factor":4,
"max_branching_factor":7,
"problem_size":1000,
"size":32,
"data": [1500, 0.258536]
},
"10320736":{"threads": 1,
"parallel_pattern":7,
"inference_mode":1,
"random_seed": 36,
"min_branching_factor":4,
"max_branching_factor":7,
"problem_size":1000,
"size":32,
"data": [2100, 0.357575]
},
"10320737":{"threads": 1,
"parallel_pattern":7,
"inference_mode":1,
"random_seed": 37,
"min_branching_factor":4,
"max_branching_factor":7,
"problem_size":1000,
"size":32,
"data": [2800, 0.477133]
},
"10320738":{"threads": 1,
"parallel_pattern":7,
"inference_mode":1,
"random_seed": 38,
"min_branching_factor":4,
"max_branching_factor":7,
"problem_size":1000,
"size":32,
"data": [300, 0.0519929]
},
"10320739":{"threads": 1,
"parallel_pattern":7,
"inference_mode":1,
"random_seed": 39,
"min_branching_factor":4,
"max_branching_factor":7,
"problem_size":1000,
"size":32,
"data": [500, 0.0858798]
},
"10320740":{"threads": 1,
"parallel_pattern":7,
"inference_mode":1,
"random_seed": 40,
"min_branching_factor":4,
"max_branching_factor":7,
"problem_size":1000,
"size":32,
"data": [3900, 0.664165]
},
"10320741":{"threads": 1,
"parallel_pattern":7,
"inference_mode":1,
"random_seed": 41,
"min_branching_factor":4,
"max_branching_factor":7,
"problem_size":1000,
"size":32,
"data": [3300, 0.562511]
},
"10320742":{"threads": 1,
"parallel_pattern":7,
"inference_mode":1,
"random_seed": 42,
"min_branching_factor":4,
"max_branching_factor":7,
"problem_size":1000,
"size":32,
"data": [4100, 0.69622]
},
"10320743":{"threads": 1,
"parallel_pattern":7,
"inference_mode":1,
"random_seed": 43,
"min_branching_factor":4,
"max_branching_factor":7,
"problem_size":1000,
"size":32,
"data": [700, 0.121259]
},
"10320744":{"threads": 1,
"parallel_pattern":7,
"inference_mode":1,
"random_seed": 44,
"min_branching_factor":4,
"max_branching_factor":7,
"problem_size":1000,
"size":32,
"data": [600, 0.103834]
},
"10320745":{"threads": 1,
"parallel_pattern":7,
"inference_mode":1,
"random_seed": 45,
"min_branching_factor":4,
"max_branching_factor":7,
"problem_size":1000,
"size":32,
"data": [4200, 0.717943]
},
"10320746":{"threads": 1,
"parallel_pattern":7,
"inference_mode":1,
"random_seed": 46,
"min_branching_factor":4,
"max_branching_factor":7,
"problem_size":1000,
"size":32,
"data": [2300, 0.402866]
},
"10320747":{"threads": 1,
"parallel_pattern":7,
"inference_mode":1,
"random_seed": 47,
"min_branching_factor":4,
"max_branching_factor":7,
"problem_size":1000,
"size":32,
"data": [4200, 0.721251]
},
"10320748":{"threads": 1,
"parallel_pattern":7,
"inference_mode":1,
"random_seed": 48,
"min_branching_factor":4,
"max_branching_factor":7,
"problem_size":1000,
"size":32,
"data": [3600, 0.606915]
},
"10320749":{"threads": 1,
"parallel_pattern":7,
"inference_mode":1,
"random_seed": 49,
"min_branching_factor":4,
"max_branching_factor":7,
"problem_size":1000,
"size":32,
"data": [4300, 0.729544]
},
"10320750":{"threads": 1,
"parallel_pattern":7,
"inference_mode":1,
"random_seed": 50,
"min_branching_factor":4,
"max_branching_factor":7,
"problem_size":1000,
"size":32,
"data": [2500, 0.424527]
},
"10320751":{"threads": 1,
"parallel_pattern":7,
"inference_mode":1,
"random_seed": 51,
"min_branching_factor":4,
"max_branching_factor":7,
"problem_size":1000,
"size":32,
"data": [800, 0.139008]
},
"10320752":{"threads": 1,
"parallel_pattern":7,
"inference_mode":1,
"random_seed": 52,
"min_branching_factor":4,
"max_branching_factor":7,
"problem_size":1000,
"size":32,
"data": [2500, 0.424686]
},
"10320753":{"threads": 1,
"parallel_pattern":7,
"inference_mode":1,
"random_seed": 53,
"min_branching_factor":4,
"max_branching_factor":7,
"problem_size":1000,
"size":32,
"data": [3300, 0.56294]
},
"10320754":{"threads": 1,
"parallel_pattern":7,
"inference_mode":1,
"random_seed": 54,
"min_branching_factor":4,
"max_branching_factor":7,
"problem_size":1000,
"size":32,
"data": [2900, 0.494182]
},
"10320755":{"threads": 1,
"parallel_pattern":7,
"inference_mode":1,
"random_seed": 55,
"min_branching_factor":4,
"max_branching_factor":7,
"problem_size":1000,
"size":32,
"data": [2700, 0.474965]
},
"10320756":{"threads": 1,
"parallel_pattern":7,
"inference_mode":1,
"random_seed": 56,
"min_branching_factor":4,
"max_branching_factor":7,
"problem_size":1000,
"size":32,
"data": [900, 0.155909]
},
"10320757":{"threads": 1,
"parallel_pattern":7,
"inference_mode":1,
"random_seed": 57,
"min_branching_factor":4,
"max_branching_factor":7,
"problem_size":1000,
"size":32,
"data": [3200, 0.543539]
},
"10320758":{"threads": 1,
"parallel_pattern":7,
"inference_mode":1,
"random_seed": 58,
"min_branching_factor":4,
"max_branching_factor":7,
"problem_size":1000,
"size":32,
"data": [3500, 0.601284]
},
"10320759":{"threads": 1,
"parallel_pattern":7,
"inference_mode":1,
"random_seed": 59,
"min_branching_factor":4,
"max_branching_factor":7,
"problem_size":1000,
"size":32,
"data": [2800, 0.478164]
},
"10320760":{"threads": 1,
"parallel_pattern":7,
"inference_mode":1,
"random_seed": 60,
"min_branching_factor":4,
"max_branching_factor":7,
"problem_size":1000,
"size":32,
"data": [3700, 0.630361]
},
"10320761":{"threads": 1,
"parallel_pattern":7,
"inference_mode":1,
"random_seed": 61,
"min_branching_factor":4,
"max_branching_factor":7,
"problem_size":1000,
"size":32,
"data": [5600, 0.951668]
},
"10320762":{"threads": 1,
"parallel_pattern":7,
"inference_mode":1,
"random_seed": 62,
"min_branching_factor":4,
"max_branching_factor":7,
"problem_size":1000,
"size":32,
"data": [2300, 0.393762]
},
"10320763":{"threads": 1,
"parallel_pattern":7,
"inference_mode":1,
"random_seed": 63,
"min_branching_factor":4,
"max_branching_factor":7,
"problem_size":1000,
"size":32,
"data": [4200, 0.727875]
},
"10320764":{"threads": 1,
"parallel_pattern":7,
"inference_mode":1,
"random_seed": 64,
"min_branching_factor":4,
"max_branching_factor":7,
"problem_size":1000,
"size":32,
"data": [3300, 0.563094]
},
"10320765":{"threads": 1,
"parallel_pattern":7,
"inference_mode":1,
"random_seed": 65,
"min_branching_factor":4,
"max_branching_factor":7,
"problem_size":1000,
"size":32,
"data": [2200, 0.381862]
},
"10320766":{"threads": 1,
"parallel_pattern":7,
"inference_mode":1,
"random_seed": 66,
"min_branching_factor":4,
"max_branching_factor":7,
"problem_size":1000,
"size":32,
"data": [3000, 0.512582]
},
"10320767":{"threads": 1,
"parallel_pattern":7,
"inference_mode":1,
"random_seed": 67,
"min_branching_factor":4,
"max_branching_factor":7,
"problem_size":1000,
"size":32,
"data": [5000, 0.860549]
},
"10320768":{"threads": 1,
"parallel_pattern":7,
"inference_mode":1,
"random_seed": 68,
"min_branching_factor":4,
"max_branching_factor":7,
"problem_size":1000,
"size":32,
"data": [3300, 0.581552]
},
"10320769":{"threads": 1,
"parallel_pattern":7,
"inference_mode":1,
"random_seed": 69,
"min_branching_factor":4,
"max_branching_factor":7,
"problem_size":1000,
"size":32,
"data": [5000, 0.86545]
},
"10320770":{"threads": 1,
"parallel_pattern":7,
"inference_mode":1,
"random_seed": 70,
"min_branching_factor":4,
"max_branching_factor":7,
"problem_size":1000,
"size":32,
"data": [4000, 0.691443]
},
"10320771":{"threads": 1,
"parallel_pattern":7,
"inference_mode":1,
"random_seed": 71,
"min_branching_factor":4,
"max_branching_factor":7,
"problem_size":1000,
"size":32,
"data": [500, 0.0853423]
},
"10320772":{"threads": 1,
"parallel_pattern":7,
"inference_mode":1,
"random_seed": 72,
"min_branching_factor":4,
"max_branching_factor":7,
"problem_size":1000,
"size":32,
"data": [4900, 0.83765]
},
"10320773":{"threads": 1,
"parallel_pattern":7,
"inference_mode":1,
"random_seed": 73,
"min_branching_factor":4,
"max_branching_factor":7,
"problem_size":1000,
"size":32,
"data": [5200, 0.881332]
},
"10320774":{"threads": 1,
"parallel_pattern":7,
"inference_mode":1,
"random_seed": 74,
"min_branching_factor":4,
"max_branching_factor":7,
"problem_size":1000,
"size":32,
"data": [5800, 0.987975]
},
"10320775":{"threads": 1,
"parallel_pattern":7,
"inference_mode":1,
"random_seed": 75,
"min_branching_factor":4,
"max_branching_factor":7,
"problem_size":1000,
"size":32,
"data": [2400, 0.408124]
},
"10320776":{"threads": 1,
"parallel_pattern":7,
"inference_mode":1,
"random_seed": 76,
"min_branching_factor":4,
"max_branching_factor":7,
"problem_size":1000,
"size":32,
"data": [3400, 0.584197]
},
"10320777":{"threads": 1,
"parallel_pattern":7,
"inference_mode":1,
"random_seed": 77,
"min_branching_factor":4,
"max_branching_factor":7,
"problem_size":1000,
"size":32,
"data": [3300, 0.582612]
},
"10320778":{"threads": 1,
"parallel_pattern":7,
"inference_mode":1,
"random_seed": 78,
"min_branching_factor":4,
"max_branching_factor":7,
"problem_size":1000,
"size":32,
"data": [2200, 0.37492]
},
"10320779":{"threads": 1,
"parallel_pattern":7,
"inference_mode":1,
"random_seed": 79,
"min_branching_factor":4,
"max_branching_factor":7,
"problem_size":1000,
"size":32,
"data": [3400, 0.579261]
},
"10320780":{"threads": 1,
"parallel_pattern":7,
"inference_mode":1,
"random_seed": 80,
"min_branching_factor":4,
"max_branching_factor":7,
"problem_size":1000,
"size":32,
"data": [2700, 0.461468]
},
"10320781":{"threads": 1,
"parallel_pattern":7,
"inference_mode":1,
"random_seed": 81,
"min_branching_factor":4,
"max_branching_factor":7,
"problem_size":1000,
"size":32,
"data": [800, 0.136402]
},
"10320782":{"threads": 1,
"parallel_pattern":7,
"inference_mode":1,
"random_seed": 82,
"min_branching_factor":4,
"max_branching_factor":7,
"problem_size":1000,
"size":32,
"data": [2000, 0.340062]
},
"10320783":{"threads": 1,
"parallel_pattern":7,
"inference_mode":1,
"random_seed": 83,
"min_branching_factor":4,
"max_branching_factor":7,
"problem_size":1000,
"size":32,
"data": [3600, 0.609694]
},
"10320784":{"threads": 1,
"parallel_pattern":7,
"inference_mode":1,
"random_seed": 84,
"min_branching_factor":4,
"max_branching_factor":7,
"problem_size":1000,
"size":32,
"data": [1500, 0.257432]
},
"10320785":{"threads": 1,
"parallel_pattern":7,
"inference_mode":1,
"random_seed": 85,
"min_branching_factor":4,
"max_branching_factor":7,
"problem_size":1000,
"size":32,
"data": [3900, 0.679725]
},
"10320786":{"threads": 1,
"parallel_pattern":7,
"inference_mode":1,
"random_seed": 86,
"min_branching_factor":4,
"max_branching_factor":7,
"problem_size":1000,
"size":32,
"data": [1500, 0.257194]
},
"10320787":{"threads": 1,
"parallel_pattern":7,
"inference_mode":1,
"random_seed": 87,
"min_branching_factor":4,
"max_branching_factor":7,
"problem_size":1000,
"size":32,
"data": [4400, 0.752203]
},
"10320788":{"threads": 1,
"parallel_pattern":7,
"inference_mode":1,
"random_seed": 88,
"min_branching_factor":4,
"max_branching_factor":7,
"problem_size":1000,
"size":32,
"data": [1500, 0.257835]
},
"10320789":{"threads": 1,
"parallel_pattern":7,
"inference_mode":1,
"random_seed": 89,
"min_branching_factor":4,
"max_branching_factor":7,
"problem_size":1000,
"size":32,
"data": [6000, 1.03354]
},
"10320790":{"threads": 1,
"parallel_pattern":7,
"inference_mode":1,
"random_seed": 90,
"min_branching_factor":4,
"max_branching_factor":7,
"problem_size":1000,
"size":32,
"data": [3900, 0.65934]
},
"10320791":{"threads": 1,
"parallel_pattern":7,
"inference_mode":1,
"random_seed": 91,
"min_branching_factor":4,
"max_branching_factor":7,
"problem_size":1000,
"size":32,
"data": [900, 0.154504]
},
"10320792":{"threads": 1,
"parallel_pattern":7,
"inference_mode":1,
"random_seed": 92,
"min_branching_factor":4,
"max_branching_factor":7,
"problem_size":1000,
"size":32,
"data": [2500, 0.427762]
},
"10320793":{"threads": 1,
"parallel_pattern":7,
"inference_mode":1,
"random_seed": 93,
"min_branching_factor":4,
"max_branching_factor":7,
"problem_size":1000,
"size":32,
"data": [2000, 0.341705]
},
"10320794":{"threads": 1,
"parallel_pattern":7,
"inference_mode":1,
"random_seed": 94,
"min_branching_factor":4,
"max_branching_factor":7,
"problem_size":1000,
"size":32,
"data": [4400, 0.752678]
},
"10320795":{"threads": 1,
"parallel_pattern":7,
"inference_mode":1,
"random_seed": 95,
"min_branching_factor":4,
"max_branching_factor":7,
"problem_size":1000,
"size":32,
"data": [3200, 0.540139]
},
"10320796":{"threads": 1,
"parallel_pattern":7,
"inference_mode":1,
"random_seed": 96,
"min_branching_factor":4,
"max_branching_factor":7,
"problem_size":1000,
"size":32,
"data": [3900, 0.668322]
},
"10320797":{"threads": 1,
"parallel_pattern":7,
"inference_mode":1,
"random_seed": 97,
"min_branching_factor":4,
"max_branching_factor":7,
"problem_size":1000,
"size":32,
"data": [6600, 1.11104]
},
"10320798":{"threads": 1,
"parallel_pattern":7,
"inference_mode":1,
"random_seed": 98,
"min_branching_factor":4,
"max_branching_factor":7,
"problem_size":1000,
"size":32,
"data": [3800, 0.65061]
},
"10320799":{"threads": 1,
"parallel_pattern":7,
"inference_mode":1,
"random_seed": 99,
"min_branching_factor":4,
"max_branching_factor":7,
"problem_size":1000,
"size":32,
"data": [3600, 0.619926]
},
"10320800":{"threads": 1,
"parallel_pattern":7,
"inference_mode":1,
"random_seed": 100,
"min_branching_factor":4,
"max_branching_factor":7,
"problem_size":1000,
"size":32,
"data": [3800, 0.654777]
}}
